Apr 20, 2019 6:47:58 PM org.jenkinsci.remoting.engine.JnlpAgentEndpointResolver resolve
INFO: Remoting server accepts the following protocols: [JNLP4-connect, Ping]
Apr 20, 2019 6:48:11 PM org.jenkinsci.remoting.util.AnonymousClassWarnings warn
WARNING: Attempt to (de-)serialize anonymous class org.jenkinsci.plugins.gitclient.Git$1; see: https://jenkins.io/redirect/serialization-of-anonymous-classes/
Apr 20, 2019 6:48:18 PM org.jenkinsci.remoting.util.AnonymousClassWarnings warn
WARNING: Attempt to (de-)serialize anonymous class org.jenkinsci.plugins.gitclient.RemoteGitImpl$CommandInvocationHandler$1; see: https://jenkins.io/redirect/serialization-of-anonymous-classes/
Apr 20, 2019 6:48:24 PM org.jenkinsci.remoting.util.AnonymousClassWarnings warn
WARNING: Attempt to (de-)serialize anonymous class hudson.plugins.git.util.GitUtils$1; see: https://jenkins.io/redirect/serialization-of-anonymous-classes/
Apr 20, 2019 6:52:49 PM org.jenkinsci.remoting.util.AnonymousClassWarnings warn
WARNING: Attempt to (de-)serialize anonymous class org.jenkinsci.plugins.durabletask.FileMonitoringTask$FileMonitoringController$1; see: https://jenkins.io/redirect/serialization-of-anonymous-classes/
