Apr 23, 2019 5:04:15 PM org.jenkinsci.remoting.engine.JnlpAgentEndpointResolver resolve
INFO: Remoting server accepts the following protocols: [JNLP4-connect, Ping]
Apr 23, 2019 5:05:13 PM org.jenkinsci.remoting.util.AnonymousClassWarnings warn
WARNING: Attempt to (de-)serialize anonymous class org.jenkinsci.plugins.gitclient.Git$1; see: https://jenkins.io/redirect/serialization-of-anonymous-classes/
Apr 23, 2019 5:05:17 PM org.jenkinsci.remoting.util.AnonymousClassWarnings warn
WARNING: Attempt to (de-)serialize anonymous class org.jenkinsci.plugins.gitclient.RemoteGitImpl$CommandInvocationHandler$1; see: https://jenkins.io/redirect/serialization-of-anonymous-classes/
Apr 23, 2019 5:07:41 PM org.jenkinsci.remoting.util.AnonymousClassWarnings warn
WARNING: Attempt to (de-)serialize anonymous class hudson.plugins.git.util.GitUtils$1; see: https://jenkins.io/redirect/serialization-of-anonymous-classes/
Apr 23, 2019 5:10:13 PM org.jenkinsci.remoting.util.AnonymousClassWarnings warn
WARNING: Attempt to (de-)serialize anonymous class org.jenkinsci.plugins.durabletask.FileMonitoringTask$FileMonitoringController$1; see: https://jenkins.io/redirect/serialization-of-anonymous-classes/
